"Updater"
{
    "Information"
    {
        "Version"
        {
            "Latest"    "1.0.2"
        }
    }
    "Files"
    {
        "Plugin"    "Path_SM/plugins/tf2_minigun_transmit_fix.smx"
        "Source"    "Path_SM/scripting/tf2_minigun_transmit_fix.sp"
    }
}
