"Updater"
{
    "Information"
    {
        "Version"
        {
            "Latest"    "1.0.0"
        }
    }
    "Files"
    {
        "Plugin"    "Path_SM/plugins/tf2_lockcps.smx"
        "Source"    "Path_SM/scripting/tf2_lockcps.sp"
    }
}
